…
## Basic example: EGLV

### Get gauge metadata, locations and latest measurements

``` r
# fetch all available gauges
gauges <- get_eglv_gauges()
gauges
#> Simple feature collection with 112 features and 12 fields
#> Geometry type: POINT
#> Dimension:     XY
#> Bounding box:  xmin: 336929 ymin: 5701285 xmax: 433191 ymax: 5733623
#> Projected CRS: ETRS89 / UTM zone 32N
#> # A tibble: 112 × 13
#>    id    name                     waterbody current_trend has_current_waterlevel
#>    <chr> <chr>                    <chr>     <chr>         <lgl>                 
#>  1 10104 Econova Allee            Berne     Keine Daten   TRUE                  
#>  2 10135 E Posener Straße (neu)   Borbecke… Keine Daten   TRUE                  
#>  3 11038 HRB Borbecker MB, Ablau… Borbecke… Keine Daten   TRUE                  
#>  4 12036 HRB Borbecker Mühlenbac… Borbecke… Keine Daten   TRUE                  
#>  5 10085 Nöggerathstraße          Borbecke… Keine Daten   TRUE                  
#>  6 10140 BOT Gungstraße, Fußgäng… Boye      Keine Daten   TRUE                  
#>  7 10141 Braukstraße, B224        Boye      Keine Daten   FALSE                 
#>  8 10139 GLA Brücke Welheimer St… Boye      Keine Daten   TRUE                  
#>  9 22049 An den Höfen, Hünxe (HR… Bruckhau… Kein Trend    TRUE                  
#> 10 21119 HÜN HRB Zur alten Mühle… Bruckhau… Keine Daten   TRUE                  
#> # ℹ 102 more rows
#> # ℹ 8 more variables: latest_waterlevel_datetime <dttm>,
#> #   latest_waterlevel_value <dbl>, latest_waterlevel_current_alertlevel <int>,
#> #   has_current_discharge <lgl>, latest_discharge_datetime <dttm>,
#> #   latest_discharge_value <dbl>, latest_discharge_current_alertlevel <lgl>,
#> #   geometry <POINT [m]>
…
